\relax 
\@writefile{toc}{\contentsline {section}{\numberline {1}Bibliografia}{2}}
\@writefile{toc}{\contentsline {section}{\numberline {2}Tem\IeC {\'a}ticas}{2}}
\@writefile{toc}{\contentsline {paragraph}{Propiedades de las derivadas}{1}}
\@writefile{toc}{\contentsline {paragraph}{Ejemplos:}{2}}
\@writefile{toc}{\contentsline {paragraph}{Recta Tangente:}{2}}
\@writefile{toc}{\contentsline {paragraph}{Derivadas de funciones exponenciales}{3}}
\@writefile{toc}{\contentsline {paragraph}{Ejemplos:}{3}}
\@writefile{toc}{\contentsline {paragraph}{ \relax \fontsize  {17.28}{22}\selectfont  {Ejemplo:}}{4}}
\@writefile{toc}{\contentsline {paragraph}{Derivadas de las funciones exponenciales trigonometricas}{5}}
\@writefile{toc}{\contentsline {paragraph}{ \relax \fontsize  {17.28}{22}\selectfont  {Ejemplo:}}{5}}
\@writefile{toc}{\contentsline {paragraph}{Composici\IeC {\'o}n de funciones}{5}}
\@writefile{toc}{\contentsline {paragraph}{ \relax \fontsize  {17.28}{22}\selectfont  {Ejemplo:}}{5}}
